{
    "name": "GameControls",
    "maps": [
        {
            "name": "Player",
            "id": "3ace8260-a8ab-42db-ada8-0375e1264ba9",
            "actions": [
                {
                    "name": "Start",
                    "type": "Button",
                    "id": "58199de7-510a-4903-b87f-548783b3ab46",
                    "expectedControlType": "Button",
                    "processors": "",
                    "interactions": ""
                },
                {
                    "name": "Move",
                    "type": "Value",
                    "id": "70fce3be-322e-442d-9ced-cfb0d52505d5",
                    "expectedControlType": "Vector2",
                    "processors": "",
                    "interactions": ""
                },
                {
                    "name": "View",
                    "type": "Value",
                    "id": "2ba606c8-4344-4030-a239-4d258f298c58",
                    "expectedControlType": "Vector2",
                    "processors": "",
                    "interactions": ""
                }
            ],
            "bindings": [
                {
                    "name": "",
                    "id": "47077323-fb49-4309-a89d-40a968e58695",
                    "path": "<Keyboard>/space",
                    "interactions": "",
                    "processors": "",
                    "groups": "",
                    "action": "Start",
                    "isComposite": false,
                    "isPartOfComposite": false
                },
                {
                    "name": "",
                    "id": "078bb394-b760-4b9d-993e-eb6953e72189",
                    "path": "<Gamepad>/buttonSouth",
                    "interactions": "",
                    "processors": "",
                    "groups": "",
                    "action": "Start",
                    "isComposite": false,
                    "isPartOfComposite": false
                },
                {
                    "name": "CursorKeys",
                    "id": "185e20ed-3ba3-4b43-b0ee-2b10e8b134bc",
                    "path": "2DVector",
                    "interactions": "",
                    "processors": "",
                    "groups": "",
                    "action": "Move",
                    "isComposite": true,
                    "isPartOfComposite": false
                },
                {
                    "name": "up",
                    "id": "121a64dc-aae4-4c0f-93f0-8902935b5876",
                    "path": "<Keyboard>/upArrow",
                    "interactions": "",
                    "processors": "",
                    "groups": "",
                    "action": "Move",
                    "isComposite": false,
                    "isPartOfComposite": true
                },
                {
                    "name": "down",
                    "id": "aaae145b-6afc-44cf-8dba-9d9587e86701",
                    "path": "<Keyboard>/downArrow",
                    "interactions": "",
                    "processors": "",
                    "groups": "",
                    "action": "Move",
                    "isComposite": false,
                    "isPartOfComposite": true
                },
                {
                    "name": "left",
                    "id": "a2947eb5-cddd-4515-87d3-3f94fdd16e89",
                    "path": "<Keyboard>/leftArrow",
                    "interactions": "",
                    "processors": "",
                    "groups": "",
                    "action": "Move",
                    "isComposite": false,
                    "isPartOfComposite": true
                },
                {
                    "name": "right",
                    "id": "2d6cb593-dbc9-4833-b0f7-2d2777338925",
                    "path": "<Keyboard>/rightArrow",
                    "interactions": "",
                    "processors": "",
                    "groups": "",
                    "action": "Move",
                    "isComposite": false,
                    "isPartOfComposite": true
                },
                {
                    "name": "WASD",
                    "id": "a07b6dfb-e1ed-4df4-bd04-a325725374eb",
                    "path": "2DVector",
                    "interactions": "",
                    "processors": "",
                    "groups": "",
                    "action": "Move",
                    "isComposite": true,
                    "isPartOfComposite": false
                },
                {
                    "name": "up",
                    "id": "cb5de9a5-56d1-426e-9266-9b50742442e2",
                    "path": "<Keyboard>/w",
                    "interactions": "",
                    "processors": "",
                    "groups": "",
                    "action": "Move",
                    "isComposite": false,
                    "isPartOfComposite": true
                },
                {
                    "name": "down",
                    "id": "f52ae01a-8d8b-4538-9572-834a5d120306",
                    "path": "<Keyboard>/s",
                    "interactions": "",
                    "processors": "",
                    "groups": "",
                    "action": "Move",
                    "isComposite": false,
                    "isPartOfComposite": true
                },
                {
                    "name": "left",
                    "id": "52981e1e-75e0-4dcd-ba54-beb03a26b05a",
                    "path": "<Keyboard>/a",
                    "interactions": "",
                    "processors": "",
                    "groups": "",
                    "action": "Move",
                    "isComposite": false,
                    "isPartOfComposite": true
                },
                {
                    "name": "right",
                    "id": "f7bf37f0-ec1d-448b-bb25-3259a4177bb4",
                    "path": "<Keyboard>/d",
                    "interactions": "",
                    "processors": "",
                    "groups": "",
                    "action": "Move",
                    "isComposite": false,
                    "isPartOfComposite": true
                },
                {
                    "name": "",
                    "id": "844e974e-9978-4953-ac07-84b458efdc90",
                    "path": "<Gamepad>/leftStick",
                    "interactions": "",
                    "processors": "",
                    "groups": "",
                    "action": "Move",
                    "isComposite": false,
                    "isPartOfComposite": false
                },
                {
                    "name": "",
                    "id": "a129fa0b-ff30-4dba-8f96-72f0babd515c",
                    "path": "<Gamepad>/dpad",
                    "interactions": "",
                    "processors": "",
                    "groups": "",
                    "action": "Move",
                    "isComposite": false,
                    "isPartOfComposite": false
                },
                {
                    "name": "",
                    "id": "99e0d0bc-3c64-4bca-8dc8-3dcb68886d30",
                    "path": "<Mouse>/delta",
                    "interactions": "",
                    "processors": "",
                    "groups": "",
                    "action": "View",
                    "isComposite": false,
                    "isPartOfComposite": false
                },
                {
                    "name": "",
                    "id": "ada54e8d-a12b-4330-a3a7-a283b2863f06",
                    "path": "<Gamepad>/rightStick",
                    "interactions": "",
                    "processors": "",
                    "groups": "",
                    "action": "View",
                    "isComposite": false,
                    "isPartOfComposite": false
                }
            ]
        }
    ],
    "controlSchemes": []
}