%YAML 1.1
%TAG !u! tag:unity3d.com,2011:
--- !u!114 &-6995188286946822035
MonoBehaviour:
  m_ObjectHideFlags: 0
  m_CorrespondingSourceObject: {fileID: 0}
  m_PrefabInstance: {fileID: 0}
  m_PrefabAsset: {fileID: 0}
  m_GameObject: {fileID: 0}
  m_Enabled: 1
  m_EditorHideFlags: 0
  m_Script: {fileID: 11500000, guid: 6b129d947111e89439225f3dd01008a6, type: 3}
  m_Name: SequencerNode
  m_EditorClassIdentifier: 
  state: 0
  started: 0
  guid: 644dfc0d0bc8f834fbda2463e13beda5
  position: {x: 197, y: 8}
  blackboard:
    moveToPosition: {x: 0, y: 0, z: 0}
    moveToObject: {fileID: 0}
  description: Something else that will run in sequence
  children:
  - {fileID: -3296689416414049242}
  - {fileID: 3177825653958008696}
--- !u!114 &-3296689416414049242
MonoBehaviour:
  m_ObjectHideFlags: 0
  m_CorrespondingSourceObject: {fileID: 0}
  m_PrefabInstance: {fileID: 0}
  m_PrefabAsset: {fileID: 0}
  m_GameObject: {fileID: 0}
  m_Enabled: 1
  m_EditorHideFlags: 0
  m_Script: {fileID: 11500000, guid: 524f12d86eaee5846a7d4643283db9c2, type: 3}
  m_Name: WaitNode
  m_EditorClassIdentifier: 
  state: 0
  started: 0
  guid: 0c2fabde018b04647a4df30f8e633f3b
  position: {x: 412, y: 16}
  blackboard:
    moveToPosition: {x: 0, y: 0, z: 0}
    moveToObject: {fileID: 0}
  description: Wait a bit, then...
  duration: 1
--- !u!114 &11400000
MonoBehaviour:
  m_ObjectHideFlags: 0
  m_CorrespondingSourceObject: {fileID: 0}
  m_PrefabInstance: {fileID: 0}
  m_PrefabAsset: {fileID: 0}
  m_GameObject: {fileID: 0}
  m_Enabled: 1
  m_EditorHideFlags: 0
  m_Script: {fileID: 11500000, guid: ec841428ec07e1f42a1f21bac4b11e50, type: 3}
  m_Name: FishPuke
  m_EditorClassIdentifier: 
  rootNode: {fileID: 8770807137967201623}
  treeState: 0
  nodes:
  - {fileID: 8770807137967201623}
  - {fileID: 3177825653958008696}
  - {fileID: -6995188286946822035}
  - {fileID: -3296689416414049242}
  blackboard:
    moveToPosition: {x: 0, y: 0, z: 0}
    moveToObject: {fileID: 0}
  runner: {fileID: 0}
--- !u!114 &3177825653958008696
MonoBehaviour:
  m_ObjectHideFlags: 0
  m_CorrespondingSourceObject: {fileID: 0}
  m_PrefabInstance: {fileID: 0}
  m_PrefabAsset: {fileID: 0}
  m_GameObject: {fileID: 0}
  m_Enabled: 1
  m_EditorHideFlags: 0
  m_Script: {fileID: 11500000, guid: d42efc1f2a3bf8c45a6e81789fc569c3, type: 3}
  m_Name: PukeNode
  m_EditorClassIdentifier: 
  state: 0
  started: 0
  guid: 705f7d7d33a3591429a11ac13e32c059
  position: {x: 420, y: 127}
  blackboard:
    moveToPosition: {x: 0, y: 0, z: 0}
    moveToObject: {fileID: 0}
  description: Blergh!
--- !u!114 &8770807137967201623
MonoBehaviour:
  m_ObjectHideFlags: 0
  m_CorrespondingSourceObject: {fileID: 0}
  m_PrefabInstance: {fileID: 0}
  m_PrefabAsset: {fileID: 0}
  m_GameObject: {fileID: 0}
  m_Enabled: 1
  m_EditorHideFlags: 0
  m_Script: {fileID: 11500000, guid: fb192de17d400234bb1794a5394b4532, type: 3}
  m_Name: RootNode
  m_EditorClassIdentifier: 
  state: 0
  started: 0
  guid: 0e1fa467bcc16294fbeaebd9d48a7a54
  position: {x: -9, y: 0}
  blackboard:
    moveToPosition: {x: 0, y: 0, z: 0}
    moveToObject: {fileID: 0}
  description: Start of the node
  child: {fileID: -6995188286946822035}
