%YAML 1.1
%TAG !u! tag:unity3d.com,2011:
--- !u!1001 &2635104241973025556
PrefabInstance:
  m_ObjectHideFlags: 0
  serializedVersion: 2
  m_Modification:
    m_TransformParent: {fileID: 0}
    m_Modifications:
    - target: {fileID: 1857471393371728586, guid: 9b0a4eb5341f317489cddcca52d578b9, type: 3}
      propertyPath: visuals
      value: 
      objectReference: {fileID: 4889714955527625543}
    - target: {fileID: 5961376901014375189, guid: 9b0a4eb5341f317489cddcca52d578b9, type: 3}
      propertyPath: m_Name
      value: Fish3
      objectReference: {fileID: 0}
    - target: {fileID: 5961376901014375402, guid: 9b0a4eb5341f317489cddcca52d578b9, type: 3}
      propertyPath: m_RootOrder
      value: 0
      objectReference: {fileID: 0}
    - target: {fileID: 5961376901014375402, guid: 9b0a4eb5341f317489cddcca52d578b9, type: 3}
      propertyPath: m_LocalPosition.x
      value: 0
      objectReference: {fileID: 0}
    - target: {fileID: 5961376901014375402, guid: 9b0a4eb5341f317489cddcca52d578b9, type: 3}
      propertyPath: m_LocalPosition.y
      value: 0
      objectReference: {fileID: 0}
    - target: {fileID: 5961376901014375402, guid: 9b0a4eb5341f317489cddcca52d578b9, type: 3}
      propertyPath: m_LocalPosition.z
      value: 0
      objectReference: {fileID: 0}
    - target: {fileID: 5961376901014375402, guid: 9b0a4eb5341f317489cddcca52d578b9, type: 3}
      propertyPath: m_LocalRotation.w
      value: 1
      objectReference: {fileID: 0}
    - target: {fileID: 5961376901014375402, guid: 9b0a4eb5341f317489cddcca52d578b9, type: 3}
      propertyPath: m_LocalRotation.x
      value: 0
      objectReference: {fileID: 0}
    - target: {fileID: 5961376901014375402, guid: 9b0a4eb5341f317489cddcca52d578b9, type: 3}
      propertyPath: m_LocalRotation.y
      value: 0
      objectReference: {fileID: 0}
    - target: {fileID: 5961376901014375402, guid: 9b0a4eb5341f317489cddcca52d578b9, type: 3}
      propertyPath: m_LocalRotation.z
      value: 0
      objectReference: {fileID: 0}
    - target: {fileID: 5961376901014375402, guid: 9b0a4eb5341f317489cddcca52d578b9, type: 3}
      propertyPath: m_LocalEulerAnglesHint.x
      value: 0
      objectReference: {fileID: 0}
    - target: {fileID: 5961376901014375402, guid: 9b0a4eb5341f317489cddcca52d578b9, type: 3}
      propertyPath: m_LocalEulerAnglesHint.y
      value: 0
      objectReference: {fileID: 0}
    - target: {fileID: 5961376901014375402, guid: 9b0a4eb5341f317489cddcca52d578b9, type: 3}
      propertyPath: m_LocalEulerAnglesHint.z
      value: 0
      objectReference: {fileID: 0}
    m_RemovedComponents: []
  m_SourcePrefab: {fileID: 100100000, guid: 9b0a4eb5341f317489cddcca52d578b9, type: 3}
--- !u!4 &8514853256362455229 stripped
Transform:
  m_CorrespondingSourceObject: {fileID: 5961376899398806441, guid: 9b0a4eb5341f317489cddcca52d578b9, type: 3}
  m_PrefabInstance: {fileID: 2635104241973025556}
  m_PrefabAsset: {fileID: 0}
--- !u!1001 &5151163553344095590
PrefabInstance:
  m_ObjectHideFlags: 0
  serializedVersion: 2
  m_Modification:
    m_TransformParent: {fileID: 8514853256362455229}
    m_Modifications:
    - target: {fileID: 158411363325251820, guid: bc665f16535adb545b527c6913beb54d, type: 3}
      propertyPath: m_Name
      value: fish3
      objectReference: {fileID: 0}
    - target: {fileID: 682606398866147926, guid: bc665f16535adb545b527c6913beb54d, type: 3}
      propertyPath: m_RootOrder
      value: 2
      objectReference: {fileID: 0}
    - target: {fileID: 682606398866147926, guid: bc665f16535adb545b527c6913beb54d, type: 3}
      propertyPath: m_LocalPosition.x
      value: 0
      objectReference: {fileID: 0}
    - target: {fileID: 682606398866147926, guid: bc665f16535adb545b527c6913beb54d, type: 3}
      propertyPath: m_LocalPosition.y
      value: 0
      objectReference: {fileID: 0}
    - target: {fileID: 682606398866147926, guid: bc665f16535adb545b527c6913beb54d, type: 3}
      propertyPath: m_LocalPosition.z
      value: 0
      objectReference: {fileID: 0}
    - target: {fileID: 682606398866147926, guid: bc665f16535adb545b527c6913beb54d, type: 3}
      propertyPath: m_LocalRotation.w
      value: 1
      objectReference: {fileID: 0}
    - target: {fileID: 682606398866147926, guid: bc665f16535adb545b527c6913beb54d, type: 3}
      propertyPath: m_LocalRotation.x
      value: -0
      objectReference: {fileID: 0}
    - target: {fileID: 682606398866147926, guid: bc665f16535adb545b527c6913beb54d, type: 3}
      propertyPath: m_LocalRotation.y
      value: -0
      objectReference: {fileID: 0}
    - target: {fileID: 682606398866147926, guid: bc665f16535adb545b527c6913beb54d, type: 3}
      propertyPath: m_LocalRotation.z
      value: -0
      objectReference: {fileID: 0}
    - target: {fileID: 682606398866147926, guid: bc665f16535adb545b527c6913beb54d, type: 3}
      propertyPath: m_LocalEulerAnglesHint.x
      value: 0
      objectReference: {fileID: 0}
    - target: {fileID: 682606398866147926, guid: bc665f16535adb545b527c6913beb54d, type: 3}
      propertyPath: m_LocalEulerAnglesHint.y
      value: 0
      objectReference: {fileID: 0}
    - target: {fileID: 682606398866147926, guid: bc665f16535adb545b527c6913beb54d, type: 3}
      propertyPath: m_LocalEulerAnglesHint.z
      value: 0
      objectReference: {fileID: 0}
    m_RemovedComponents: []
  m_SourcePrefab: {fileID: 100100000, guid: bc665f16535adb545b527c6913beb54d, type: 3}
--- !u!114 &4889714955527625543 stripped
MonoBehaviour:
  m_CorrespondingSourceObject: {fileID: 335335850074185249, guid: bc665f16535adb545b527c6913beb54d, type: 3}
  m_PrefabInstance: {fileID: 5151163553344095590}
  m_PrefabAsset: {fileID: 0}
  m_GameObject: {fileID: 0}
  m_Enabled: 1
  m_EditorHideFlags: 0
  m_Script: {fileID: 11500000, guid: 9166163e3e406fb45a1b3d16dea3bbab, type: 3}
  m_Name: 
  m_EditorClassIdentifier: 
